EESchema Schematic File Version 4
EELAYER 30 0
EELAYER END
$Descr A4 11693 8268
encoding utf-8
Sheet 1 1
Title ""
Date ""
Rev ""
Comp ""
Comment1 ""
Comment2 ""
Comment3 ""
Comment4 ""
$EndDescr
$Comp
L Amplifier_Instrumentation:INA128 U3
U 1 1 5DEA4CCC
P 4900 3200
F 0 "U3" H 5050 3350 50  0000 L CNN
F 1 "INA122" H 5150 3050 50  0000 L CNN
F 2 "Package_SO:SO-8_3.9x4.9mm_P1.27mm" H 5000 3200 50  0001 C CNN
F 3 "http://www.ti.com/lit/ds/symlink/ina128.pdf" H 5000 3200 50  0001 C CNN
	1    4900 3200
	1    0    0    -1  
$EndComp
$Comp
L Device:R_Small R2
U 1 1 5DEA5571
P 4400 3200
F 0 "R2" H 4341 3246 50  0000 R CNN
F 1 "2k2" H 4341 3155 50  0000 R CNN
F 2 "Resistor_SMD:R_0402_1005Metric" H 4400 3200 50  0001 C CNN
F 3 "~" H 4400 3200 50  0001 C CNN
	1    4400 3200
	-1   0    0    -1  
$EndComp
$Comp
L FPM_02PG:FPM_02PG U2
U 1 1 5DEA7297
P 3850 3200
F 0 "U2" H 3523 3221 50  0000 R CNN
F 1 "FPM_02PG" H 3523 3130 50  0000 R CNN
F 2 "Connector_PinHeader_2.54mm:PinHeader_2x03_P2.54mm_Vertical" H 3200 3650 50  0001 C CNN
F 3 "" H 3200 3650 50  0001 C CNN
	1    3850 3200
	1    0    0    -1  
$EndComp
Wire Wire Line
	4200 3250 4250 3250
Wire Wire Line
	4250 3250 4250 3400
Wire Wire Line
	4250 3400 4200 3400
$Comp
L Connector:Conn_01x03_Female J1
U 1 1 5DEA8DC6
P 750 3200
F 0 "J1" H 642 3485 50  0000 C CNN
F 1 "conn" H 642 3394 50  0000 C CNN
F 2 "Connector_PinHeader_1.00mm:PinHeader_1x03_P1.00mm_Vertical" H 750 3200 50  0001 C CNN
F 3 "~" H 750 3200 50  0001 C CNN
	1    750  3200
	-1   0    0    -1  
$EndComp
$Comp
L power:+5V #PWR01
U 1 1 5DEA949E
P 1300 3100
F 0 "#PWR01" H 1300 2950 50  0001 C CNN
F 1 "+5V" H 1315 3273 50  0000 C CNN
F 2 "" H 1300 3100 50  0001 C CNN
F 3 "" H 1300 3100 50  0001 C CNN
	1    1300 3100
	1    0    0    -1  
$EndComp
$Comp
L power:GND #PWR02
U 1 1 5DEA9CB5
P 1300 3200
F 0 "#PWR02" H 1300 2950 50  0001 C CNN
F 1 "GND" H 1305 3027 50  0000 C CNN
F 2 "" H 1300 3200 50  0001 C CNN
F 3 "" H 1300 3200 50  0001 C CNN
	1    1300 3200
	1    0    0    -1  
$EndComp
Text Label 950  3300 0    50   ~ 0
Output
Wire Wire Line
	950  3200 1300 3200
Wire Wire Line
	950  3100 1300 3100
$Comp
L power:+5V #PWR05
U 1 1 5DEAB5F6
P 4900 2900
F 0 "#PWR05" H 4900 2750 50  0001 C CNN
F 1 "+5V" H 4915 3073 50  0000 C CNN
F 2 "" H 4900 2900 50  0001 C CNN
F 3 "" H 4900 2900 50  0001 C CNN
	1    4900 2900
	1    0    0    -1  
$EndComp
$Comp
L power:GND #PWR06
U 1 1 5DEAB984
P 4900 3500
F 0 "#PWR06" H 4900 3250 50  0001 C CNN
F 1 "GND" H 4905 3327 50  0000 C CNN
F 2 "" H 4900 3500 50  0001 C CNN
F 3 "" H 4900 3500 50  0001 C CNN
	1    4900 3500
	1    0    0    -1  
$EndComp
Text Label 5300 3200 0    50   ~ 0
Output
$Comp
L FPM_02PG:LM317LITPX U1
U 1 1 5DEAECF8
P 2000 3100
F 0 "U1" H 2000 3365 50  0000 C CNN
F 1 "LM317LITPX" H 2000 3274 50  0000 C CNN
F 2 "Package_BGA:Texas_DSBGA-6_0.9x1.4mm_Layout2x3_P0.5mm" H 2000 3100 50  0001 C CNN
F 3 "" H 2000 3100 50  0001 C CNN
	1    2000 3100
	1    0    0    -1  
$EndComp
$Comp
L Device:R_Small R1
U 1 1 5DEAFF4E
P 2550 3100
F 0 "R1" V 2354 3100 50  0000 C CNN
F 1 "800" V 2445 3100 50  0000 C CNN
F 2 "Resistor_SMD:R_0402_1005Metric" H 2550 3100 50  0001 C CNN
F 3 "~" H 2550 3100 50  0001 C CNN
	1    2550 3100
	0    1    1    0   
$EndComp
Wire Wire Line
	2350 3100 2450 3100
Wire Wire Line
	2000 3500 2700 3500
Wire Wire Line
	2700 3500 2700 3100
Wire Wire Line
	2700 3100 2650 3100
$Comp
L power:+5V #PWR03
U 1 1 5DEB17EF
P 1650 3100
F 0 "#PWR03" H 1650 2950 50  0001 C CNN
F 1 "+5V" H 1665 3273 50  0000 C CNN
F 2 "" H 1650 3100 50  0001 C CNN
F 3 "" H 1650 3100 50  0001 C CNN
	1    1650 3100
	1    0    0    -1  
$EndComp
Text Label 2700 3100 0    50   ~ 0
1.5mA
Text Label 3750 2650 0    50   ~ 0
1.5mA
$Comp
L power:GND #PWR04
U 1 1 5DEB46CF
P 3750 3800
F 0 "#PWR04" H 3750 3550 50  0001 C CNN
F 1 "GND" H 3755 3627 50  0000 C CNN
F 2 "" H 3750 3800 50  0001 C CNN
F 3 "" H 3750 3800 50  0001 C CNN
	1    3750 3800
	1    0    0    -1  
$EndComp
Wire Wire Line
	4400 3300 4600 3300
Wire Wire Line
	4600 3100 4400 3100
Wire Wire Line
	4250 3400 4600 3400
Connection ~ 4250 3400
Wire Wire Line
	4600 3000 4200 3000
$Comp
L Device:C_Small C1
U 1 1 5DECE8F1
P 4250 2300
F 0 "C1" H 4342 2346 50  0000 L CNN
F 1 "0.1uF" H 4342 2255 50  0000 L CNN
F 2 "Capacitor_SMD:C_0402_1005Metric" H 4250 2300 50  0001 C CNN
F 3 "~" H 4250 2300 50  0001 C CNN
	1    4250 2300
	1    0    0    -1  
$EndComp
$Comp
L power:GND #PWR0101
U 1 1 5DECEC07
P 4250 2400
F 0 "#PWR0101" H 4250 2150 50  0001 C CNN
F 1 "GND" H 4255 2227 50  0000 C CNN
F 2 "" H 4250 2400 50  0001 C CNN
F 3 "" H 4250 2400 50  0001 C CNN
	1    4250 2400
	1    0    0    -1  
$EndComp
$Comp
L power:+5V #PWR0102
U 1 1 5DECEE8D
P 4250 2200
F 0 "#PWR0102" H 4250 2050 50  0001 C CNN
F 1 "+5V" H 4265 2373 50  0000 C CNN
F 2 "" H 4250 2200 50  0001 C CNN
F 3 "" H 4250 2200 50  0001 C CNN
	1    4250 2200
	1    0    0    -1  
$EndComp
$EndSCHEMATC
